c0000000000
c0000000001
c0000000010
c0000000011
c0000000100
c0000000101
c0000000110
c0000000111
c0000001000
c0000001001
c0000001010
c0000001011
c0000001100
c0000001101
c0000001110
c0000001111
c0000010000
c0000010001
c0000010010
c0000010011
c0000010100
c0000010101
c0000010110
c0000010111
c0000011000
c0000011001
c0000011010
c0000011011
c0000011100
c0000011101
c0000011110
c0000011111
c0000100000
c0000100001
c0000100010
c0000100011
c0000100100
c0000100101
c0000100110
c0000100111
c0000101000
c0000101001
c0000101010
c0000101011
c0000101100
c0000101101
c0000101110
c0000101111
c0000110000
c0000110001
c0000110010
c0000110011
c0000110100
c0000110101
c0000110110
c0000110111
c0000111000
c0000111001
c0000111010
c0000111011
c0000111100
c0000111101
c0000111110
c0000111111
c0001000000
c0001000001
c0001000010
c0001000011
c0001000100
c0001000101
c0001000110
c0001000111
c0001001000
c0001001001
c0001001010
c0001001011
c0001001100
c0001001101
c0001001110
c0001001111
c0001010000
c0001010001
c0001010010
c0001010011
c0001010100
c0001010101
c0001010110
c0001010111
c0001011000
c0001011001
c0001011010
c0001011011
c0001011100
c0001011101
c0001011110
c0001011111
c0001100000
c0001100001
c0001100010
c0001100011
c0001100100
c0001100101
c0001100110
c0001100111
c0001101000
c0001101001
c0001101010
c0001101011
c0001101100
c0001101101
c0001101110
c0001101111
c0001110000
c0001110001
c0001110010
c0001110011
c0001110100
c0001110101
c0001110110
c0001110111
c0001111000
c0001111001
c0001111010
c0001111011
c0001111100
c0001111101
c0001111110
c0001111111
c0010000000
c0010000001
c0010000010
c0010000011
c0010000100
c0010000101
c0010000110
c0010000111
c0010001000
c0010001001
c0010001010
c0010001011
c0010001100
c0010001101
c0010001110
c0010001111
c0010010000
c0010010001
c0010010010
c0010010011
c0010010100
c0010010101
c0010010110
c0010010111
c0010011000
c0010011001
c0010011010
c0010011011
c0010011100
c0010011101
c0010011110
c0010011111
c0010100000
c0010100001
c0010100010
c0010100011
c0010100100
c0010100101
c0010100110
c0010100111
c0010101000
c0010101001
c0010101010
c0010101011
c0010101100
c0010101101
c0010101110
c0010101111
c0010110000
c0010110001
c0010110010
c0010110011
c0010110100
c0010110101
c0010110110
c0010110111
c0010111000
c0010111001
c0010111010
c0010111011
c0010111100
c0010111101
c0010111110
c0010111111
c0011000000
c0011000001
c0011000010
c0011000011
c0011000100
c0011000101
c0011000110
c0011000111
c0011001000
c0011001001
c0011001010
c0011001011
c0011001100
c0011001101
c0011001110
c0011001111
c0011010000
c0011010001
c0011010010
c0011010011
c0011010100
c0011010101
c0011010110
c0011010111
c0011011000
c0011011001
c0011011010
c0011011011
c0011011100
c0011011101
c0011011110
c0011011111
c0011100000
c0011100001
c0011100010
c0011100011
c0011100100
c0011100101
c0011100110
c0011100111
c0011101000
c0011101001
c0011101010
c0011101011
c0011101100
c0011101101
c0011101110
c0011101111
c0011110000
c0011110001
c0011110010
c0011110011
c0011110100
c0011110101
c0011110110
c0011110111
c0011111000
c0011111001
c0011111010
c0011111011
c0011111100
c0011111101
c0011111110
c0011111111
c0100000000
c0100000001
c0100000010
c0100000011
c0100000100
c0100000101
c0100000110
c0100000111
c0100001000
c0100001001
c0100001010
c0100001011
c0100001100
c0100001101
c0100001110
c0100001111
c0100010000
c0100010001
c0100010010
c0100010011
c0100010100
c0100010101
c0100010110
c0100010111
c0100011000
c0100011001
c0100011010
c0100011011
c0100011100
c0100011101
c0100011110
c0100011111
c0100100000
c0100100001
c0100100010
c0100100011
c0100100100
c0100100101
c0100100110
c0100100111
c0100101000
c0100101001
c0100101010
c0100101011
c0100101100
c0100101101
c0100101110
c0100101111
c0100110000
c0100110001
c0100110010
c0100110011
c0100110100
c0100110101
c0100110110
c0100110111
c0100111000
c0100111001
c0100111010
c0100111011
c0100111100
c0100111101
c0100111110
c0100111111
c0101000000
c0101000001
c0101000010
c0101000011
c0101000100
c0101000101
c0101000110
c0101000111
c0101001000
c0101001001
c0101001010
c0101001011
c0101001100
c0101001101
c0101001110
c0101001111
c0101010000
c0101010001
c0101010010
c0101010011
c0101010100
c0101010101
c0101010110
c0101010111
c0101011000
c0101011001
c0101011010
c0101011011
c0101011100
c0101011101
c0101011110
c0101011111
c0101100000
c0101100001
c0101100010
c0101100011
c0101100100
c0101100101
c0101100110
c0101100111
c0101101000
c0101101001
c0101101010
c0101101011
c0101101100
c0101101101
c0101101110
c0101101111
c0101110000
c0101110001
c0101110010
c0101110011
c0101110100
c0101110101
c0101110110
c0101110111
c0101111000
c0101111001
c0101111010
c0101111011
c0101111100
c0101111101
c0101111110
c0101111111
c0110000000
c0110000001
c0110000010
c0110000011
c0110000100
c0110000101
c0110000110
c0110000111
c0110001000
c0110001001
c0110001010
c0110001011
c0110001100
c0110001101
c0110001110
c0110001111
c0110010000
c0110010001
c0110010010
c0110010011
c0110010100
c0110010101
c0110010110
c0110010111
c0110011000
c0110011001
c0110011010
c0110011011
c0110011100
c0110011101
c0110011110
c0110011111
c0110100000
c0110100001
c0110100010
c0110100011
c0110100100
c0110100101
c0110100110
c0110100111
c0110101000
c0110101001
c0110101010
c0110101011
c0110101100
c0110101101
c0110101110
c0110101111
c0110110000
c0110110001
c0110110010
c0110110011
c0110110100
c0110110101
c0110110110
c0110110111
c0110111000
c0110111001
c0110111010
c0110111011
c0110111100
c0110111101
c0110111110
c0110111111
c0111000000
c0111000001
c0111000010
c0111000011
c0111000100
c0111000101
c0111000110
c0111000111
c0111001000
c0111001001
c0111001010
c0111001011
c0111001100
c0111001101
c0111001110
c0111001111
c0111010000
c0111010001
c0111010010
c0111010011
c0111010100
c0111010101
c0111010110
c0111010111
c0111011000
c0111011001
c0111011010
c0111011011
c0111011100
c0111011101
c0111011110
c0111011111
c0111100000
c0111100001
c0111100010
c0111100011
c0111100100
c0111100101
c0111100110
c0111100111
c0111101000
c0111101001
c0111101010
c0111101011
c0111101100
c0111101101
c0111101110
c0111101111
c0111110000
c0111110001
c0111110010
c0111110011
c0111110100
c0111110101
c0111110110
c0111110111
c0111111000
c0111111001
c0111111010
c0111111011
c0111111100
c0111111101
c0111111110
c0111111111
c1000000000
c1000000001
c1000000010
c1000000011
c1000000100
c1000000101
c1000000110
c1000000111
c1000001000
c1000001001
c1000001010
c1000001011
c1000001100
c1000001101
c1000001110
c1000001111
c1000010000
c1000010001
c1000010010
c1000010011
c1000010100
c1000010101
c1000010110
c1000010111
c1000011000
c1000011001
c1000011010
c1000011011
c1000011100
c1000011101
c1000011110
c1000011111
c1000100000
c1000100001
c1000100010
c1000100011
c1000100100
c1000100101
c1000100110
c1000100111
c1000101000
c1000101001
c1000101010
c1000101011
c1000101100
c1000101101
c1000101110
c1000101111
c1000110000
c1000110001
c1000110010
c1000110011
c1000110100
c1000110101
c1000110110
c1000110111
c1000111000
c1000111001
c1000111010
c1000111011
c1000111100
c1000111101
c1000111110
c1000111111
c1001000000
c1001000001
c1001000010
c1001000011
c1001000100
c1001000101
c1001000110
c1001000111
c1001001000
c1001001001
c1001001010
c1001001011
c1001001100
c1001001101
c1001001110
c1001001111
c1001010000
c1001010001
c1001010010
c1001010011
c1001010100
c1001010101
c1001010110
c1001010111
c1001011000
c1001011001
c1001011010
c1001011011
c1001011100
c1001011101
c1001011110
c1001011111
c1001100000
c1001100001
c1001100010
c1001100011
c1001100100
c1001100101
c1001100110
c1001100111
c1001101000
c1001101001
c1001101010
c1001101011
c1001101100
c1001101101
c1001101110
c1001101111
c1001110000
c1001110001
c1001110010
c1001110011
c1001110100
c1001110101
c1001110110
c1001110111
c1001111000
c1001111001
c1001111010
c1001111011
c1001111100
c1001111101
c1001111110
c1001111111
c1010000000
c1010000001
c1010000010
c1010000011
c1010000100
c1010000101
c1010000110
c1010000111
c1010001000
c1010001001
c1010001010
c1010001011
c1010001100
c1010001101
c1010001110
c1010001111
c1010010000
c1010010001
c1010010010
c1010010011
c1010010100
c1010010101
c1010010110
c1010010111
c1010011000
c1010011001
c1010011010
c1010011011
c1010011100
c1010011101
c1010011110
c1010011111
c1010100000
c1010100001
c1010100010
c1010100011
c1010100100
c1010100101
c1010100110
c1010100111
c1010101000
c1010101001
c1010101010
c1010101011
c1010101100
c1010101101
c1010101110
c1010101111
c1010110000
c1010110001
c1010110010
c1010110011
c1010110100
c1010110101
c1010110110
c1010110111
c1010111000
c1010111001
c1010111010
c1010111011
c1010111100
c1010111101
c1010111110
c1010111111
c1011000000
c1011000001
c1011000010
c1011000011
c1011000100
c1011000101
c1011000110
c1011000111
c1011001000
c1011001001
c1011001010
c1011001011
c1011001100
c1011001101
c1011001110
c1011001111
c1011010000
c1011010001
c1011010010
c1011010011
c1011010100
c1011010101
c1011010110
c1011010111
c1011011000
c1011011001
c1011011010
c1011011011
c1011011100
c1011011101
c1011011110
c1011011111
c1011100000
c1011100001
c1011100010
c1011100011
c1011100100
c1011100101
c1011100110
c1011100111
c1011101000
c1011101001
c1011101010
c1011101011
c1011101100
c1011101101
c1011101110
c1011101111
c1011110000
c1011110001
c1011110010
c1011110011
c1011110100
c1011110101
c1011110110
c1011110111
c1011111000
c1011111001
c1011111010
c1011111011
c1011111100
c1011111101
c1011111110
c1011111111
c1100000000
c1100000001
c1100000010
c1100000011
c1100000100
c1100000101
c1100000110
c1100000111
c1100001000
c1100001001
c1100001010
c1100001011
c1100001100
c1100001101
c1100001110
c1100001111
c1100010000
c1100010001
c1100010010
c1100010011
c1100010100
c1100010101
c1100010110
c1100010111
c1100011000
c1100011001
c1100011010
c1100011011
c1100011100
c1100011101
c1100011110
c1100011111
c1100100000
c1100100001
c1100100010
c1100100011
c1100100100
c1100100101
c1100100110
c1100100111
c1100101000
c1100101001
c1100101010
c1100101011
c1100101100
c1100101101
c1100101110
c1100101111
c1100110000
c1100110001
c1100110010
c1100110011
c1100110100
c1100110101
c1100110110
c1100110111
c1100111000
c1100111001
c1100111010
c1100111011
c1100111100
c1100111101
c1100111110
c1100111111
c1101000000
c1101000001
c1101000010
c1101000011
c1101000100
c1101000101
c1101000110
c1101000111
c1101001000
c1101001001
c1101001010
c1101001011
c1101001100
c1101001101
c1101001110
c1101001111
c1101010000
c1101010001
c1101010010
c1101010011
c1101010100
c1101010101
c1101010110
c1101010111
c1101011000
c1101011001
c1101011010
c1101011011
c1101011100
c1101011101
c1101011110
c1101011111
c1101100000
c1101100001
c1101100010
c1101100011
c1101100100
c1101100101
c1101100110
c1101100111
c1101101000
c1101101001
c1101101010
c1101101011
c1101101100
c1101101101
c1101101110
c1101101111
c1101110000
c1101110001
c1101110010
c1101110011
c1101110100
c1101110101
c1101110110
c1101110111
c1101111000
c1101111001
c1101111010
c1101111011
c1101111100
c1101111101
c1101111110
c1101111111
c1110000000
c1110000001
c1110000010
c1110000011
c1110000100
c1110000101
c1110000110
c1110000111
c1110001000
c1110001001
c1110001010
c1110001011
c1110001100
c1110001101
c1110001110
c1110001111
c1110010000
c1110010001
c1110010010
c1110010011
c1110010100
c1110010101
c1110010110
c1110010111
c1110011000
c1110011001
c1110011010
c1110011011
c1110011100
c1110011101
c1110011110
c1110011111
c1110100000
c1110100001
c1110100010
c1110100011
c1110100100
c1110100101
c1110100110
c1110100111
c1110101000
c1110101001
c1110101010
c1110101011
c1110101100
c1110101101
c1110101110
c1110101111
c1110110000
c1110110001
c1110110010
c1110110011
c1110110100
c1110110101
c1110110110
c1110110111
c1110111000
c1110111001
c1110111010
c1110111011
c1110111100
c1110111101
c1110111110
c1110111111
c1111000000
c1111000001
c1111000010
c1111000011
c1111000100
c1111000101
c1111000110
c1111000111
c1111001000
c1111001001
c1111001010
c1111001011
c1111001100
c1111001101
c1111001110
c1111001111
c1111010000
c1111010001
c1111010010
c1111010011
c1111010100
c1111010101
c1111010110
c1111010111
c1111011000
c1111011001
c1111011010
c1111011011
c1111011100
c1111011101
c1111011110
c1111011111
c1111100000
c1111100001
c1111100010
c1111100011
c1111100100
c1111100101
c1111100110
c1111100111
c1111101000
c1111101001
c1111101010
c1111101011
c1111101100
c1111101101
c1111101110
c1111101111
c1111110000
c1111110001
c1111110010
c1111110011
c1111110100
c1111110101
c1111110110
c1111110111
c1111111000
c1111111001
c1111111010
c1111111011
c1111111100
c1111111101
c1111111110
c1111111111
c0000000000
#
c0000000000
c0000000010
c0000000100
c0000000110
c0000001000
c0000001010
c0000001100
c0000001110
c0000010000
c0000010010
c0000010100
c0000010110
c0000011000
c0000011010
c0000011100
c0000011110
c0000100000
c0000100010
c0000100100
c0000100110
c0000101000
c0000101010
c0000101100
c0000101110
c0000110000
c0000110010
c0000110100
c0000110110
c0000111000
c0000111010
c0000111100
c0000111110
c0001000000
c0001000010
c0001000100
c0001000110
c0001001000
c0001001010
c0001001100
c0001001110
c0001010000
c0001010010
c0001010100
c0001010110
c0001011000
c0001011010
c0001011100
c0001011110
c0001100000
c0001100010
c0001100100
c0001100110
c0001101000
c0001101010
c0001101100
c0001101110
c0001110000
c0001110010
c0001110100
c0001110110
c0001111000
c0001111010
c0001111100
c0001111110
c0010000000
c0010000010
c0010000100
c0010000110
c0010001000
c0010001010
c0010001100
c0010001110
c0010010000
c0010010010
c0010010100
c0010010110
c0010011000
c0010011010
c0010011100
c0010011110
c0010100000
c0010100010
c0010100100
c0010100110
c0010101000
c0010101010
c0010101100
c0010101110
c0010110000
c0010110010
c0010110100
c0010110110
c0010111000
c0010111010
c0010111100
c0010111110
c0011000000
c0011000010
c0011000100
c0011000110
c0011001000
c0011001010
c0011001100
c0011001110
c0011010000
c0011010010
c0011010100
c0011010110
c0011011000
c0011011010
c0011011100
c0011011110
c0011100000
c0011100010
c0011100100
c0011100110
c0011101000
c0011101010
c0011101100
c0011101110
c0011110000
c0011110010
c0011110100
c0011110110
c0011111000
c0011111010
c0011111100
c0011111110
c0100000000
c0100000010
c0100000100
c0100000110
c0100001000
c0100001010
c0100001100
c0100001110
c0100010000
c0100010010
c0100010100
c0100010110
c0100011000
c0100011010
c0100011100
c0100011110
c0100100000
c0100100010
c0100100100
c0100100110
c0100101000
c0100101010
c0100101100
c0100101110
c0100110000
c0100110010
c0100110100
c0100110110
c0100111000
c0100111010
c0100111100
c0100111110
c0101000000
c0101000010
c0101000100
c0101000110
c0101001000
c0101001010
c0101001100
c0101001110
c0101010000
c0101010010
c0101010100
c0101010110
c0101011000
c0101011010
c0101011100
c0101011110
c0101100000
c0101100010
c0101100100
c0101100110
c0101101000
c0101101010
c0101101100
c0101101110
c0101110000
c0101110010
c0101110100
c0101110110
c0101111000
c0101111010
c0101111100
c0101111110
c0110000000
c0110000010
c0110000100
c0110000110
c0110001000
c0110001010
c0110001100
c0110001110
c0110010000
c0110010010
c0110010100
c0110010110
c0110011000
c0110011010
c0110011100
c0110011110
c0110100000
c0110100010
c0110100100
c0110100110
c0110101000
c0110101010
c0110101100
c0110101110
c0110110000
c0110110010
c0110110100
c0110110110
c0110111000
c0110111010
c0110111100
c0110111110
c0111000000
c0111000010
c0111000100
c0111000110
c0111001000
c0111001010
c0111001100
c0111001110
c0111010000
c0111010010
c0111010100
c0111010110
c0111011000
c0111011010
c0111011100
c0111011110
c0111100000
c0111100010
c0111100100
c0111100110
c0111101000
c0111101010
c0111101100
c0111101110
c0111110000
c0111110010
c0111110100
c0111110110
c0111111000
c0111111010
c0111111100
c0111111110
c1000000000
c1000000010
c1000000100
c1000000110
c1000001000
c1000001010
c1000001100
c1000001110
c1000010000
c1000010010
c1000010100
c1000010110
c1000011000
c1000011010
c1000011100
c1000011110
c1000100000
c1000100010
c1000100100
c1000100110
c1000101000
c1000101010
c1000101100
c1000101110
c1000110000
c1000110010
c1000110100
c1000110110
c1000111000
c1000111010
c1000111100
c1000111110
c1001000000
c1001000010
c1001000100
c1001000110
c1001001000
c1001001010
c1001001100
c1001001110
c1001010000
c1001010010
c1001010100
c1001010110
c1001011000
c1001011010
c1001011100
c1001011110
c1001100000
c1001100010
c1001100100
c1001100110
c1001101000
c1001101010
c1001101100
c1001101110
c1001110000
c1001110010
c1001110100
c1001110110
c1001111000
c1001111010
c1001111100
c1001111110
c1010000000
c1010000010
c1010000100
c1010000110
c1010001000
c1010001010
c1010001100
c1010001110
c1010010000
c1010010010
c1010010100
c1010010110
c1010011000
c1010011010
c1010011100
c1010011110
c1010100000
c1010100010
c1010100100
c1010100110
c1010101000
c1010101010
c1010101100
c1010101110
c1010110000
c1010110010
c1010110100
c1010110110
c1010111000
c1010111010
c1010111100
c1010111110
c1011000000
c1011000010
c1011000100
c1011000110
c1011001000
c1011001010
c1011001100
c1011001110
c1011010000
c1011010010
c1011010100
c1011010110
c1011011000
c1011011010
c1011011100
c1011011110
c1011100000
c1011100010
c1011100100
c1011100110
c1011101000
c1011101010
c1011101100
c1011101110
c1011110000
c1011110010
c1011110100
c1011110110
c1011111000
c1011111010
c1011111100
c1011111110
c1100000000
c1100000010
c1100000100
c1100000110
c1100001000
c1100001010
c1100001100
c1100001110
c1100010000
c1100010010
c1100010100
c1100010110
c1100011000
c1100011010
c1100011100
c1100011110
c1100100000
c1100100010
c1100100100
c1100100110
c1100101000
c1100101010
c1100101100
c1100101110
c1100110000
c1100110010
c1100110100
c1100110110
c1100111000
c1100111010
c1100111100
c1100111110
c1101000000
c1101000010
c1101000100
c1101000110
c1101001000
c1101001010
c1101001100
c1101001110
c1101010000
c1101010010
c1101010100
c1101010110
c1101011000
c1101011010
c1101011100
c1101011110
c1101100000
c1101100010
c1101100100
c1101100110
c1101101000
c1101101010
c1101101100
c1101101110
c1101110000
c1101110010
c1101110100
c1101110110
c1101111000
c1101111010
c1101111100
c1101111110
c1110000000
c1110000010
c1110000100
c1110000110
c1110001000
c1110001010
c1110001100
c1110001110
c1110010000
c1110010010
c1110010100
c1110010110
c1110011000
c1110011010
c1110011100
c1110011110
c1110100000
c1110100010
c1110100100
c1110100110
c1110101000
c1110101010
c1110101100
c1110101110
c1110110000
c1110110010
c1110110100
c1110110110
c1110111000
c1110111010
c1110111100
c1110111110
c1111000000
c1111000010
c1111000100
c1111000110
c1111001000
c1111001010
c1111001100
c1111001110
c1111010000
c1111010010
c1111010100
c1111010110
c1111011000
c1111011010
c1111011100
c1111011110
c1111100000
c1111100010
c1111100100
c1111100110
c1111101000
c1111101010
c1111101100
c1111101110
c1111110000
c1111110010
c1111110100
c1111110110
c1111111000
c1111111010
c1111111100
c1111111110
c0000000000
#
c0000000000
c0000000011
c0000000110
c0000001001
c0000001100
c0000001111
c0000010010
c0000010101
c0000011000
c0000011011
c0000011110
c0000100001
c0000100100
c0000100111
c0000101010
c0000101101
c0000110000
c0000110011
c0000110110
c0000111001
c0000111100
c0000111111
c0001000010
c0001000101
c0001001000
c0001001011
c0001001110
c0001010001
c0001010100
c0001010111
c0001011010
c0001011101
c0001100000
c0001100011
c0001100110
c0001101001
c0001101100
c0001101111
c0001110010
c0001110101
c0001111000
c0001111011
c0001111110
c0010000001
c0010000100
c0010000111
c0010001010
c0010001101
c0010010000
c0010010011
c0010010110
c0010011001
c0010011100
c0010011111
c0010100010
c0010100101
c0010101000
c0010101011
c0010101110
c0010110001
c0010110100
c0010110111
c0010111010
c0010111101
c0011000000
c0011000011
c0011000110
c0011001001
c0011001100
c0011001111
c0011010010
c0011010101
c0011011000
c0011011011
c0011011110
c0011100001
c0011100100
c0011100111
c0011101010
c0011101101
c0011110000
c0011110011
c0011110110
c0011111001
c0011111100
c0011111111
c0100000010
c0100000101
c0100001000
c0100001011
c0100001110
c0100010001
c0100010100
c0100010111
c0100011010
c0100011101
c0100100000
c0100100011
c0100100110
c0100101001
c0100101100
c0100101111
c0100110010
c0100110101
c0100111000
c0100111011
c0100111110
c0101000001
c0101000100
c0101000111
c0101001010
c0101001101
c0101010000
c0101010011
c0101010110
c0101011001
c0101011100
c0101011111
c0101100010
c0101100101
c0101101000
c0101101011
c0101101110
c0101110001
c0101110100
c0101110111
c0101111010
c0101111101
c0110000000
c0110000011
c0110000110
c0110001001
c0110001100
c0110001111
c0110010010
c0110010101
c0110011000
c0110011011
c0110011110
c0110100001
c0110100100
c0110100111
c0110101010
c0110101101
c0110110000
c0110110011
c0110110110
c0110111001
c0110111100
c0110111111
c0111000010
c0111000101
c0111001000
c0111001011
c0111001110
c0111010001
c0111010100
c0111010111
c0111011010
c0111011101
c0111100000
c0111100011
c0111100110
c0111101001
c0111101100
c0111101111
c0111110010
c0111110101
c0111111000
c0111111011
c0111111110
c1000000001
c1000000100
c1000000111
c1000001010
c1000001101
c1000010000
c1000010011
c1000010110
c1000011001
c1000011100
c1000011111
c1000100010
c1000100101
c1000101000
c1000101011
c1000101110
c1000110001
c1000110100
c1000110111
c1000111010
c1000111101
c1001000000
c1001000011
c1001000110
c1001001001
c1001001100
c1001001111
c1001010010
c1001010101
c1001011000
c1001011011
c1001011110
c1001100001
c1001100100
c1001100111
c1001101010
c1001101101
c1001110000
c1001110011
c1001110110
c1001111001
c1001111100
c1001111111
c1010000010
c1010000101
c1010001000
c1010001011
c1010001110
c1010010001
c1010010100
c1010010111
c1010011010
c1010011101
c1010100000
c1010100011
c1010100110
c1010101001
c1010101100
c1010101111
c1010110010
c1010110101
c1010111000
c1010111011
c1010111110
c1011000001
c1011000100
c1011000111
c1011001010
c1011001101
c1011010000
c1011010011
c1011010110
c1011011001
c1011011100
c1011011111
c1011100010
c1011100101
c1011101000
c1011101011
c1011101110
c1011110001
c1011110100
c1011110111
c1011111010
c1011111101
c1100000000
c1100000011
c1100000110
c1100001001
c1100001100
c1100001111
c1100010010
c1100010101
c1100011000
c1100011011
c1100011110
c1100100001
c1100100100
c1100100111
c1100101010
c1100101101
c1100110000
c1100110011
c1100110110
c1100111001
c1100111100
c1100111111
c1101000010
c1101000101
c1101001000
c1101001011
c1101001110
c1101010001
c1101010100
c1101010111
c1101011010
c1101011101
c1101100000
c1101100011
c1101100110
c1101101001
c1101101100
c1101101111
c1101110010
c1101110101
c1101111000
c1101111011
c1101111110
c1110000001
c1110000100
c1110000111
c1110001010
c1110001101
c1110010000
c1110010011
c1110010110
c1110011001
c1110011100
c1110011111
c1110100010
c1110100101
c1110101000
c1110101011
c1110101110
c1110110001
c1110110100
c1110110111
c1110111010
c1110111101
c1111000000
c1111000011
c1111000110
c1111001001
c1111001100
c1111001111
c1111010010
c1111010101
c1111011000
c1111011011
c1111011110
c1111100001
c1111100100
c1111100111
c1111101010
c1111101101
c1111110000
c1111110011
c1111110110
c1111111001
c1111111100
c1111111111
c0000000010
c0000000101
c0000001000
c0000001011
c0000001110
c0000010001
c0000010100
c0000010111
c0000011010
c0000011101
c0000100000
c0000100011
c0000100110
c0000101001
c0000101100
c0000101111
c0000110010
c0000110101
c0000111000
c0000111011
c0000111110
c0001000001
c0001000100
c0001000111
c0001001010
c0001001101
c0001010000
c0001010011
c0001010110
c0001011001
c0001011100
c0001011111
c0001100010
c0001100101
c0001101000
c0001101011
c0001101110
c0001110001
c0001110100
c0001110111
c0001111010
c0001111101
c0010000000
c0010000011
c0010000110
c0010001001
c0010001100
c0010001111
c0010010010
c0010010101
c0010011000
c0010011011
c0010011110
c0010100001
c0010100100
c0010100111
c0010101010
c0010101101
c0010110000
c0010110011
c0010110110
c0010111001
c0010111100
c0010111111
c0011000010
c0011000101
c0011001000
c0011001011
c0011001110
c0011010001
c0011010100
c0011010111
c0011011010
c0011011101
c0011100000
c0011100011
c0011100110
c0011101001
c0011101100
c0011101111
c0011110010
c0011110101
c0011111000
c0011111011
c0011111110
c0100000001
c0100000100
c0100000111
c0100001010
c0100001101
c0100010000
c0100010011
c0100010110
c0100011001
c0100011100
c0100011111
c0100100010
c0100100101
c0100101000
c0100101011
c0100101110
c0100110001
c0100110100
c0100110111
c0100111010
c0100111101
c0101000000
c0101000011
c0101000110
c0101001001
c0101001100
c0101001111
c0101010010
c0101010101
c0101011000
c0101011011
c0101011110
c0101100001
c0101100100
c0101100111
c0101101010
c0101101101
c0101110000
c0101110011
c0101110110
c0101111001
c0101111100
c0101111111
c0110000010
c0110000101
c0110001000
c0110001011
c0110001110
c0110010001
c0110010100
c0110010111
c0110011010
c0110011101
c0110100000
c0110100011
c0110100110
c0110101001
c0110101100
c0110101111
c0110110010
c0110110101
c0110111000
c0110111011
c0110111110
c0111000001
c0111000100
c0111000111
c0111001010
c0111001101
c0111010000
c0111010011
c0111010110
c0111011001
c0111011100
c0111011111
c0111100010
c0111100101
c0111101000
c0111101011
c0111101110
c0111110001
c0111110100
c0111110111
c0111111010
c0111111101
c1000000000
c1000000011
c1000000110
c1000001001
c1000001100
c1000001111
c1000010010
c1000010101
c1000011000
c1000011011
c1000011110
c1000100001
c1000100100
c1000100111
c1000101010
c1000101101
c1000110000
c1000110011
c1000110110
c1000111001
c1000111100
c1000111111
c1001000010
c1001000101
c1001001000
c1001001011
c1001001110
c1001010001
c1001010100
c1001010111
c1001011010
c1001011101
c1001100000
c1001100011
c1001100110
c1001101001
c1001101100
c1001101111
c1001110010
c1001110101
c1001111000
c1001111011
c1001111110
c1010000001
c1010000100
c1010000111
c1010001010
c1010001101
c1010010000
c1010010011
c1010010110
c1010011001
c1010011100
c1010011111
c1010100010
c1010100101
c1010101000
c1010101011
c1010101110
c1010110001
c1010110100
c1010110111
c1010111010
c1010111101
c1011000000
c1011000011
c1011000110
c1011001001
c1011001100
c1011001111
c1011010010
c1011010101
c1011011000
c1011011011
c1011011110
c1011100001
c1011100100
c1011100111
c1011101010
c1011101101
c1011110000
c1011110011
c1011110110
c1011111001
c1011111100
c1011111111
c1100000010
c1100000101
c1100001000
c1100001011
c1100001110
c1100010001
c1100010100
c1100010111
c1100011010
c1100011101
c1100100000
c1100100011
c1100100110
c1100101001
c1100101100
c1100101111
c1100110010
c1100110101
c1100111000
c1100111011
c1100111110
c1101000001
c1101000100
c1101000111
c1101001010
c1101001101
c1101010000
c1101010011
c1101010110
c1101011001
c1101011100
c1101011111
c1101100010
c1101100101
c1101101000
c1101101011
c1101101110
c1101110001
c1101110100
c1101110111
c1101111010
c1101111101
c1110000000
c1110000011
c1110000110
c1110001001
c1110001100
c1110001111
c1110010010
c1110010101
c1110011000
c1110011011
c1110011110
c1110100001
c1110100100
c1110100111
c1110101010
c1110101101
c1110110000
c1110110011
c1110110110
c1110111001
c1110111100
c1110111111
c1111000010
c1111000101
c1111001000
c1111001011
c1111001110
c1111010001
c1111010100
c1111010111
c1111011010
c1111011101
c1111100000
c1111100011
c1111100110
c1111101001
c1111101100
c1111101111
c1111110010
c1111110101
c1111111000
c1111111011
c1111111110
c0000000001
c0000000100
c0000000111
c0000001010
c0000001101
c0000010000
c0000010011
c0000010110
c0000011001
c0000011100
c0000011111
c0000100010
c0000100101
c0000101000
c0000101011
c0000101110
c0000110001
c0000110100
c0000110111
c0000111010
c0000111101
c0001000000
c0001000011
c0001000110
c0001001001
c0001001100
c0001001111
c0001010010
c0001010101
c0001011000
c0001011011
c0001011110
c0001100001
c0001100100
c0001100111
c0001101010
c0001101101
c0001110000
c0001110011
c0001110110
c0001111001
c0001111100
c0001111111
c0010000010
c0010000101
c0010001000
c0010001011
c0010001110
c0010010001
c0010010100
c0010010111
c0010011010
c0010011101
c0010100000
c0010100011
c0010100110
c0010101001
c0010101100
c0010101111
c0010110010
c0010110101
c0010111000
c0010111011
c0010111110
c0011000001
c0011000100
c0011000111
c0011001010
c0011001101
c0011010000
c0011010011
c0011010110
c0011011001
c0011011100
c0011011111
c0011100010
c0011100101
c0011101000
c0011101011
c0011101110
c0011110001
c0011110100
c0011110111
c0011111010
c0011111101
c0100000000
c0100000011
c0100000110
c0100001001
c0100001100
c0100001111
c0100010010
c0100010101
c0100011000
c0100011011
c0100011110
c0100100001
c0100100100
c0100100111
c0100101010
c0100101101
c0100110000
c0100110011
c0100110110
c0100111001
c0100111100
c0100111111
c0101000010
c0101000101
c0101001000
c0101001011
c0101001110
c0101010001
c0101010100
c0101010111
c0101011010
c0101011101
c0101100000
c0101100011
c0101100110
c0101101001
c0101101100
c0101101111
c0101110010
c0101110101
c0101111000
c0101111011
c0101111110
c0110000001
c0110000100
c0110000111
c0110001010
c0110001101
c0110010000
c0110010011
c0110010110
c0110011001
c0110011100
c0110011111
c0110100010
c0110100101
c0110101000
c0110101011
c0110101110
c0110110001
c0110110100
c0110110111
c0110111010
c0110111101
c0111000000
c0111000011
c0111000110
c0111001001
c0111001100
c0111001111
c0111010010
c0111010101
c0111011000
c0111011011
c0111011110
c0111100001
c0111100100
c0111100111
c0111101010
c0111101101
c0111110000
c0111110011
c0111110110
c0111111001
c0111111100
c0111111111
c1000000010
c1000000101
c1000001000
c1000001011
c1000001110
c1000010001
c1000010100
c1000010111
c1000011010
c1000011101
c1000100000
c1000100011
c1000100110
c1000101001
c1000101100
c1000101111
c1000110010
c1000110101
c1000111000
c1000111011
c1000111110
c1001000001
c1001000100
c1001000111
c1001001010
c1001001101
c1001010000
c1001010011
c1001010110
c1001011001
c1001011100
c1001011111
c1001100010
c1001100101
c1001101000
c1001101011
c1001101110
c1001110001
c1001110100
c1001110111
c1001111010
c1001111101
c1010000000
c1010000011
c1010000110
c1010001001
c1010001100
c1010001111
c1010010010
c1010010101
c1010011000
c1010011011
c1010011110
c1010100001
c1010100100
c1010100111
c1010101010
c1010101101
c1010110000
c1010110011
c1010110110
c1010111001
c1010111100
c1010111111
c1011000010
c1011000101
c1011001000
c1011001011
c1011001110
c1011010001
c1011010100
c1011010111
c1011011010
c1011011101
c1011100000
c1011100011
c1011100110
c1011101001
c1011101100
c1011101111
c1011110010
c1011110101
c1011111000
c1011111011
c1011111110
c1100000001
c1100000100
c1100000111
c1100001010
c1100001101
c1100010000
c1100010011
c1100010110
c1100011001
c1100011100
c1100011111
c1100100010
c1100100101
c1100101000
c1100101011
c1100101110
c1100110001
c1100110100
c1100110111
c1100111010
c1100111101
c1101000000
c1101000011
c1101000110
c1101001001
c1101001100
c1101001111
c1101010010
c1101010101
c1101011000
c1101011011
c1101011110
c1101100001
c1101100100
c1101100111
c1101101010
c1101101101
c1101110000
c1101110011
c1101110110
c1101111001
c1101111100
c1101111111
c1110000010
c1110000101
c1110001000
c1110001011
c1110001110
c1110010001
c1110010100
c1110010111
c1110011010
c1110011101
c1110100000
c1110100011
c1110100110
c1110101001
c1110101100
c1110101111
c1110110010
c1110110101
c1110111000
c1110111011
c1110111110
c1111000001
c1111000100
c1111000111
c1111001010
c1111001101
c1111010000
c1111010011
c1111010110
c1111011001
c1111011100
c1111011111
c1111100010
c1111100101
c1111101000
c1111101011
c1111101110
c1111110001
c1111110100
c1111110111
c1111111010
c1111111101
c0000000000
#
c0000000000
c0000000100
c0000001000
c0000001100
c0000010000
c0000010100
c0000011000
c0000011100
c0000100000
c0000100100
c0000101000
c0000101100
c0000110000
c0000110100
c0000111000
c0000111100
c0001000000
c0001000100
c0001001000
c0001001100
c0001010000
c0001010100
c0001011000
c0001011100
c0001100000
c0001100100
c0001101000
c0001101100
c0001110000
c0001110100
c0001111000
c0001111100
c0010000000
c0010000100
c0010001000
c0010001100
c0010010000
c0010010100
c0010011000
c0010011100
c0010100000
c0010100100
c0010101000
c0010101100
c0010110000
c0010110100
c0010111000
c0010111100
c0011000000
c0011000100
c0011001000
c0011001100
c0011010000
c0011010100
c0011011000
c0011011100
c0011100000
c0011100100
c0011101000
c0011101100
c0011110000
c0011110100
c0011111000
c0011111100
c0100000000
c0100000100
c0100001000
c0100001100
c0100010000
c0100010100
c0100011000
c0100011100
c0100100000
c0100100100
c0100101000
c0100101100
c0100110000
c0100110100
c0100111000
c0100111100
c0101000000
c0101000100
c0101001000
c0101001100
c0101010000
c0101010100
c0101011000
c0101011100
c0101100000
c0101100100
c0101101000
c0101101100
c0101110000
c0101110100
c0101111000
c0101111100
c0110000000
c0110000100
c0110001000
c0110001100
c0110010000
c0110010100
c0110011000
c0110011100
c0110100000
c0110100100
c0110101000
c0110101100
c0110110000
c0110110100
c0110111000
c0110111100
c0111000000
c0111000100
c0111001000
c0111001100
c0111010000
c0111010100
c0111011000
c0111011100
c0111100000
c0111100100
c0111101000
c0111101100
c0111110000
c0111110100
c0111111000
c0111111100
c1000000000
c1000000100
c1000001000
c1000001100
c1000010000
c1000010100
c1000011000
c1000011100
c1000100000
c1000100100
c1000101000
c1000101100
c1000110000
c1000110100
c1000111000
c1000111100
c1001000000
c1001000100
c1001001000
c1001001100
c1001010000
c1001010100
c1001011000
c1001011100
c1001100000
c1001100100
c1001101000
c1001101100
c1001110000
c1001110100
c1001111000
c1001111100
c1010000000
c1010000100
c1010001000
c1010001100
c1010010000
c1010010100
c1010011000
c1010011100
c1010100000
c1010100100
c1010101000
c1010101100
c1010110000
c1010110100
c1010111000
c1010111100
c1011000000
c1011000100
c1011001000
c1011001100
c1011010000
c1011010100
c1011011000
c1011011100
c1011100000
c1011100100
c1011101000
c1011101100
c1011110000
c1011110100
c1011111000
c1011111100
c1100000000
c1100000100
c1100001000
c1100001100
c1100010000
c1100010100
c1100011000
c1100011100
c1100100000
c1100100100
c1100101000
c1100101100
c1100110000
c1100110100
c1100111000
c1100111100
c1101000000
c1101000100
c1101001000
c1101001100
c1101010000
c1101010100
c1101011000
c1101011100
c1101100000
c1101100100
c1101101000
c1101101100
c1101110000
c1101110100
c1101111000
c1101111100
c1110000000
c1110000100
c1110001000
c1110001100
c1110010000
c1110010100
c1110011000
c1110011100
c1110100000
c1110100100
c1110101000
c1110101100
c1110110000
c1110110100
c1110111000
c1110111100
c1111000000
c1111000100
c1111001000
c1111001100
c1111010000
c1111010100
c1111011000
c1111011100
c1111100000
c1111100100
c1111101000
c1111101100
c1111110000
c1111110100
c1111111000
c1111111100
c0000000000
#
c0000000000
c0000000101
c0000001010
c0000001111
c0000010100
c0000011001
c0000011110
c0000100011
c0000101000
c0000101101
c0000110010
c0000110111
c0000111100
c0001000001
c0001000110
c0001001011
c0001010000
c0001010101
c0001011010
c0001011111
c0001100100
c0001101001
c0001101110
c0001110011
c0001111000
c0001111101
c0010000010
c0010000111
c0010001100
c0010010001
c0010010110
c0010011011
c0010100000
c0010100101
c0010101010
c0010101111
c0010110100
c0010111001
c0010111110
c0011000011
c0011001000
c0011001101
c0011010010
c0011010111
c0011011100
c0011100001
c0011100110
c0011101011
c0011110000
c0011110101
c0011111010
c0011111111
c0100000100
c0100001001
c0100001110
c0100010011
c0100011000
c0100011101
c0100100010
c0100100111
c0100101100
c0100110001
c0100110110
c0100111011
c0101000000
c0101000101
c0101001010
c0101001111
c0101010100
c0101011001
c0101011110
c0101100011
c0101101000
c0101101101
c0101110010
c0101110111
c0101111100
c0110000001
c0110000110
c0110001011
c0110010000
c0110010101
c0110011010
c0110011111
c0110100100
c0110101001
c0110101110
c0110110011
c0110111000
c0110111101
c0111000010
c0111000111
c0111001100
c0111010001
c0111010110
c0111011011
c0111100000
c0111100101
c0111101010
c0111101111
c0111110100
c0111111001
c0111111110
c1000000011
c1000001000
c1000001101
c1000010010
c1000010111
c1000011100
c1000100001
c1000100110
c1000101011
c1000110000
c1000110101
c1000111010
c1000111111
c1001000100
c1001001001
c1001001110
c1001010011
c1001011000
c1001011101
c1001100010
c1001100111
c1001101100
c1001110001
c1001110110
c1001111011
c1010000000
c1010000101
c1010001010
c1010001111
c1010010100
c1010011001
c1010011110
c1010100011
c1010101000
c1010101101
c1010110010
c1010110111
c1010111100
c1011000001
c1011000110
c1011001011
c1011010000
c1011010101
c1011011010
c1011011111
c1011100100
c1011101001
c1011101110
c1011110011
c1011111000
c1011111101
c1100000010
c1100000111
c1100001100
c1100010001
c1100010110
c1100011011
c1100100000
c1100100101
c1100101010
c1100101111
c1100110100
c1100111001
c1100111110
c1101000011
c1101001000
c1101001101
c1101010010
c1101010111
c1101011100
c1101100001
c1101100110
c1101101011
c1101110000
c1101110101
c1101111010
c1101111111
c1110000100
c1110001001
c1110001110
c1110010011
c1110011000
c1110011101
c1110100010
c1110100111
c1110101100
c1110110001
c1110110110
c1110111011
c1111000000
c1111000101
c1111001010
c1111001111
c1111010100
c1111011001
c1111011110
c1111100011
c1111101000
c1111101101
c1111110010
c1111110111
c1111111100
c0000000001
c0000000110
c0000001011
c0000010000
c0000010101
c0000011010
c0000011111
c0000100100
c0000101001
c0000101110
c0000110011
c0000111000
c0000111101
c0001000010
c0001000111
c0001001100
c0001010001
c0001010110
c0001011011
c0001100000
c0001100101
c0001101010
c0001101111
c0001110100
c0001111001
c0001111110
c0010000011
c0010001000
c0010001101
c0010010010
c0010010111
c0010011100
c0010100001
c0010100110
c0010101011
c0010110000
c0010110101
c0010111010
c0010111111
c0011000100
c0011001001
c0011001110
c0011010011
c0011011000
c0011011101
c0011100010
c0011100111
c0011101100
c0011110001
c0011110110
c0011111011
c0100000000
c0100000101
c0100001010
c0100001111
c0100010100
c0100011001
c0100011110
c0100100011
c0100101000
c0100101101
c0100110010
c0100110111
c0100111100
c0101000001
c0101000110
c0101001011
c0101010000
c0101010101
c0101011010
c0101011111
c0101100100
c0101101001
c0101101110
c0101110011
c0101111000
c0101111101
c0110000010
c0110000111
c0110001100
c0110010001
c0110010110
c0110011011
c0110100000
c0110100101
c0110101010
c0110101111
c0110110100
c0110111001
c0110111110
c0111000011
c0111001000
c0111001101
c0111010010
c0111010111
c0111011100
c0111100001
c0111100110
c0111101011
c0111110000
c0111110101
c0111111010
c0111111111
c1000000100
c1000001001
c1000001110
c1000010011
c1000011000
c1000011101
c1000100010
c1000100111
c1000101100
c1000110001
c1000110110
c1000111011
c1001000000
c1001000101
c1001001010
c1001001111
c1001010100
c1001011001
c1001011110
c1001100011
c1001101000
c1001101101
c1001110010
c1001110111
c1001111100
c1010000001
c1010000110
c1010001011
c1010010000
c1010010101
c1010011010
c1010011111
c1010100100
c1010101001
c1010101110
c1010110011
c1010111000
c1010111101
c1011000010
c1011000111
c1011001100
c1011010001
c1011010110
c1011011011
c1011100000
c1011100101
c1011101010
c1011101111
c1011110100
c1011111001
c1011111110
c1100000011
c1100001000
c1100001101
c1100010010
c1100010111
c1100011100
c1100100001
c1100100110
c1100101011
c1100110000
c1100110101
c1100111010
c1100111111
c1101000100
c1101001001
c1101001110
c1101010011
c1101011000
c1101011101
c1101100010
c1101100111
c1101101100
c1101110001
c1101110110
c1101111011
c1110000000
c1110000101
c1110001010
c1110001111
c1110010100
c1110011001
c1110011110
c1110100011
c1110101000
c1110101101
c1110110010
c1110110111
c1110111100
c1111000001
c1111000110
c1111001011
c1111010000
c1111010101
c1111011010
c1111011111
c1111100100
c1111101001
c1111101110
c1111110011
c1111111000
c1111111101
c0000000010
c0000000111
c0000001100
c0000010001
c0000010110
c0000011011
c0000100000
c0000100101
c0000101010
c0000101111
c0000110100
c0000111001
c0000111110
c0001000011
c0001001000
c0001001101
c0001010010
c0001010111
c0001011100
c0001100001
c0001100110
c0001101011
c0001110000
c0001110101
c0001111010
c0001111111
c0010000100
c0010001001
c0010001110
c0010010011
c0010011000
c0010011101
c0010100010
c0010100111
c0010101100
c0010110001
c0010110110
c0010111011
c0011000000
c0011000101
c0011001010
c0011001111
c0011010100
c0011011001
c0011011110
c0011100011
c0011101000
c0011101101
c0011110010
c0011110111
c0011111100
c0100000001
c0100000110
c0100001011
c0100010000
c0100010101
c0100011010
c0100011111
c0100100100
c0100101001
c0100101110
c0100110011
c0100111000
c0100111101
c0101000010
c0101000111
c0101001100
c0101010001
c0101010110
c0101011011
c0101100000
c0101100101
c0101101010
c0101101111
c0101110100
c0101111001
c0101111110
c0110000011
c0110001000
c0110001101
c0110010010
c0110010111
c0110011100
c0110100001
c0110100110
c0110101011
c0110110000
c0110110101
c0110111010
c0110111111
c0111000100
c0111001001
c0111001110
c0111010011
c0111011000
c0111011101
c0111100010
c0111100111
c0111101100
c0111110001
c0111110110
c0111111011
c1000000000
c1000000101
c1000001010
c1000001111
c1000010100
c1000011001
c1000011110
c1000100011
c1000101000
c1000101101
c1000110010
c1000110111
c1000111100
c1001000001
c1001000110
c1001001011
c1001010000
c1001010101
c1001011010
c1001011111
c1001100100
c1001101001
c1001101110
c1001110011
c1001111000
c1001111101
c1010000010
c1010000111
c1010001100
c1010010001
c1010010110
c1010011011
c1010100000
c1010100101
c1010101010
c1010101111
c1010110100
c1010111001
c1010111110
c1011000011
c1011001000
c1011001101
c1011010010
c1011010111
c1011011100
c1011100001
c1011100110
c1011101011
c1011110000
c1011110101
c1011111010
c1011111111
c1100000100
c1100001001
c1100001110
c1100010011
c1100011000
c1100011101
c1100100010
c1100100111
c1100101100
c1100110001
c1100110110
c1100111011
c1101000000
c1101000101
c1101001010
c1101001111
c1101010100
c1101011001
c1101011110
c1101100011
c1101101000
c1101101101
c1101110010
c1101110111
c1101111100
c1110000001
c1110000110
c1110001011
c1110010000
c1110010101
c1110011010
c1110011111
c1110100100
c1110101001
c1110101110
c1110110011
c1110111000
c1110111101
c1111000010
c1111000111
c1111001100
c1111010001
c1111010110
c1111011011
c1111100000
c1111100101
c1111101010
c1111101111
c1111110100
c1111111001
c1111111110
c0000000011
c0000001000
c0000001101
c0000010010
c0000010111
c0000011100
c0000100001
c0000100110
c0000101011
c0000110000
c0000110101
c0000111010
c0000111111
c0001000100
c0001001001
c0001001110
c0001010011
c0001011000
c0001011101
c0001100010
c0001100111
c0001101100
c0001110001
c0001110110
c0001111011
c0010000000
c0010000101
c0010001010
c0010001111
c0010010100
c0010011001
c0010011110
c0010100011
c0010101000
c0010101101
c0010110010
c0010110111
c0010111100
c0011000001
c0011000110
c0011001011
c0011010000
c0011010101
c0011011010
c0011011111
c0011100100
c0011101001
c0011101110
c0011110011
c0011111000
c0011111101
c0100000010
c0100000111
c0100001100
c0100010001
c0100010110
c0100011011
c0100100000
c0100100101
c0100101010
c0100101111
c0100110100
c0100111001
c0100111110
c0101000011
c0101001000
c0101001101
c0101010010
c0101010111
c0101011100
c0101100001
c0101100110
c0101101011
c0101110000
c0101110101
c0101111010
c0101111111
c0110000100
c0110001001
c0110001110
c0110010011
c0110011000
c0110011101
c0110100010
c0110100111
c0110101100
c0110110001
c0110110110
c0110111011
c0111000000
c0111000101
c0111001010
c0111001111
c0111010100
c0111011001
c0111011110
c0111100011
c0111101000
c0111101101
c0111110010
c0111110111
c0111111100
c1000000001
c1000000110
c1000001011
c1000010000
c1000010101
c1000011010
c1000011111
c1000100100
c1000101001
c1000101110
c1000110011
c1000111000
c1000111101
c1001000010
c1001000111
c1001001100
c1001010001
c1001010110
c1001011011
c1001100000
c1001100101
c1001101010
c1001101111
c1001110100
c1001111001
c1001111110
c1010000011
c1010001000
c1010001101
c1010010010
c1010010111
c1010011100
c1010100001
c1010100110
c1010101011
c1010110000
c1010110101
c1010111010
c1010111111
c1011000100
c1011001001
c1011001110
c1011010011
c1011011000
c1011011101
c1011100010
c1011100111
c1011101100
c1011110001
c1011110110
c1011111011
c1100000000
c1100000101
c1100001010
c1100001111
c1100010100
c1100011001
c1100011110
c1100100011
c1100101000
c1100101101
c1100110010
c1100110111
c1100111100
c1101000001
c1101000110
c1101001011
c1101010000
c1101010101
c1101011010
c1101011111
c1101100100
c1101101001
c1101101110
c1101110011
c1101111000
c1101111101
c1110000010
c1110000111
c1110001100
c1110010001
c1110010110
c1110011011
c1110100000
c1110100101
c1110101010
c1110101111
c1110110100
c1110111001
c1110111110
c1111000011
c1111001000
c1111001101
c1111010010
c1111010111
c1111011100
c1111100001
c1111100110
c1111101011
c1111110000
c1111110101
c1111111010
c1111111111
c0000000100
c0000001001
c0000001110
c0000010011
c0000011000
c0000011101
c0000100010
c0000100111
c0000101100
c0000110001
c0000110110
c0000111011
c0001000000
c0001000101
c0001001010
c0001001111
c0001010100
c0001011001
c0001011110
c0001100011
c0001101000
c0001101101
c0001110010
c0001110111
c0001111100
c0010000001
c0010000110
c0010001011
c0010010000
c0010010101
c0010011010
c0010011111
c0010100100
c0010101001
c0010101110
c0010110011
c0010111000
c0010111101
c0011000010
c0011000111
c0011001100
c0011010001
c0011010110
c0011011011
c0011100000
c0011100101
c0011101010
c0011101111
c0011110100
c0011111001
c0011111110
c0100000011
c0100001000
c0100001101
c0100010010
c0100010111
c0100011100
c0100100001
c0100100110
c0100101011
c0100110000
c0100110101
c0100111010
c0100111111
c0101000100
c0101001001
c0101001110
c0101010011
c0101011000
c0101011101
c0101100010
c0101100111
c0101101100
c0101110001
c0101110110
c0101111011
c0110000000
c0110000101
c0110001010
c0110001111
c0110010100
c0110011001
c0110011110
c0110100011
c0110101000
c0110101101
c0110110010
c0110110111
c0110111100
c0111000001
c0111000110
c0111001011
c0111010000
c0111010101
c0111011010
c0111011111
c0111100100
c0111101001
c0111101110
c0111110011
c0111111000
c0111111101
c1000000010
c1000000111
c1000001100
c1000010001
c1000010110
c1000011011
c1000100000
c1000100101
c1000101010
c1000101111
c1000110100
c1000111001
c1000111110
c1001000011
c1001001000
c1001001101
c1001010010
c1001010111
c1001011100
c1001100001
c1001100110
c1001101011
c1001110000
c1001110101
c1001111010
c1001111111
c1010000100
c1010001001
c1010001110
c1010010011
c1010011000
c1010011101
c1010100010
c1010100111
c1010101100
c1010110001
c1010110110
c1010111011
c1011000000
c1011000101
c1011001010
c1011001111
c1011010100
c1011011001
c1011011110
c1011100011
c1011101000
c1011101101
c1011110010
c1011110111
c1011111100
c1100000001
c1100000110
c1100001011
c1100010000
c1100010101
c1100011010
c1100011111
c1100100100
c1100101001
c1100101110
c1100110011
c1100111000
c1100111101
c1101000010
c1101000111
c1101001100
c1101010001
c1101010110
c1101011011
c1101100000
c1101100101
c1101101010
c1101101111
c1101110100
c1101111001
c1101111110
c1110000011
c1110001000
c1110001101
c1110010010
c1110010111
c1110011100
c1110100001
c1110100110
c1110101011
c1110110000
c1110110101
c1110111010
c1110111111
c1111000100
c1111001001
c1111001110
c1111010011
c1111011000
c1111011101
c1111100010
c1111100111
c1111101100
c1111110001
c1111110110
c1111111011
c0000000000
#
c0000000000
c0000000110
c0000001100
c0000010010
c0000011000
c0000011110
c0000100100
c0000101010
c0000110000
c0000110110
c0000111100
c0001000010
c0001001000
c0001001110
c0001010100
c0001011010
c0001100000
c0001100110
c0001101100
c0001110010
c0001111000
c0001111110
c0010000100
c0010001010
c0010010000
c0010010110
c0010011100
c0010100010
c0010101000
c0010101110
c0010110100
c0010111010
c0011000000
c0011000110
c0011001100
c0011010010
c0011011000
c0011011110
c0011100100
c0011101010
c0011110000
c0011110110
c0011111100
c0100000010
c0100001000
c0100001110
c0100010100
c0100011010
c0100100000
c0100100110
c0100101100
c0100110010
c0100111000
c0100111110
c0101000100
c0101001010
c0101010000
c0101010110
c0101011100
c0101100010
c0101101000
c0101101110
c0101110100
c0101111010
c0110000000
c0110000110
c0110001100
c0110010010
c0110011000
c0110011110
c0110100100
c0110101010
c0110110000
c0110110110
c0110111100
c0111000010
c0111001000
c0111001110
c0111010100
c0111011010
c0111100000
c0111100110
c0111101100
c0111110010
c0111111000
c0111111110
c1000000100
c1000001010
c1000010000
c1000010110
c1000011100
c1000100010
c1000101000
c1000101110
c1000110100
c1000111010
c1001000000
c1001000110
c1001001100
c1001010010
c1001011000
c1001011110
c1001100100
c1001101010
c1001110000
c1001110110
c1001111100
c1010000010
c1010001000
c1010001110
c1010010100
c1010011010
c1010100000
c1010100110
c1010101100
c1010110010
c1010111000
c1010111110
c1011000100
c1011001010
c1011010000
c1011010110
c1011011100
c1011100010
c1011101000
c1011101110
c1011110100
c1011111010
c1100000000
c1100000110
c1100001100
c1100010010
c1100011000
c1100011110
c1100100100
c1100101010
c1100110000
c1100110110
c1100111100
c1101000010
c1101001000
c1101001110
c1101010100
c1101011010
c1101100000
c1101100110
c1101101100
c1101110010
c1101111000
c1101111110
c1110000100
c1110001010
c1110010000
c1110010110
c1110011100
c1110100010
c1110101000
c1110101110
c1110110100
c1110111010
c1111000000
c1111000110
c1111001100
c1111010010
c1111011000
c1111011110
c1111100100
c1111101010
c1111110000
c1111110110
c1111111100
c0000000010
c0000001000
c0000001110
c0000010100
c0000011010
c0000100000
c0000100110
c0000101100
c0000110010
c0000111000
c0000111110
c0001000100
c0001001010
c0001010000
c0001010110
c0001011100
c0001100010
c0001101000
c0001101110
c0001110100
c0001111010
c0010000000
c0010000110
c0010001100
c0010010010
c0010011000
c0010011110
c0010100100
c0010101010
c0010110000
c0010110110
c0010111100
c0011000010
c0011001000
c0011001110
c0011010100
c0011011010
c0011100000
c0011100110
c0011101100
c0011110010
c0011111000
c0011111110
c0100000100
c0100001010
c0100010000
c0100010110
c0100011100
c0100100010
c0100101000
c0100101110
c0100110100
c0100111010
c0101000000
c0101000110
c0101001100
c0101010010
c0101011000
c0101011110
c0101100100
c0101101010
c0101110000
c0101110110
c0101111100
c0110000010
c0110001000
c0110001110
c0110010100
c0110011010
c0110100000
c0110100110
c0110101100
c0110110010
c0110111000
c0110111110
c0111000100
c0111001010
c0111010000
c0111010110
c0111011100
c0111100010
c0111101000
c0111101110
c0111110100
c0111111010
c1000000000
c1000000110
c1000001100
c1000010010
c1000011000
c1000011110
c1000100100
c1000101010
c1000110000
c1000110110
c1000111100
c1001000010
c1001001000
c1001001110
c1001010100
c1001011010
c1001100000
c1001100110
c1001101100
c1001110010
c1001111000
c1001111110
c1010000100
c1010001010
c1010010000
c1010010110
c1010011100
c1010100010
c1010101000
c1010101110
c1010110100
c1010111010
c1011000000
c1011000110
c1011001100
c1011010010
c1011011000
c1011011110
c1011100100
c1011101010
c1011110000
c1011110110
c1011111100
c1100000010
c1100001000
c1100001110
c1100010100
c1100011010
c1100100000
c1100100110
c1100101100
c1100110010
c1100111000
c1100111110
c1101000100
c1101001010
c1101010000
c1101010110
c1101011100
c1101100010
c1101101000
c1101101110
c1101110100
c1101111010
c1110000000
c1110000110
c1110001100
c1110010010
c1110011000
c1110011110
c1110100100
c1110101010
c1110110000
c1110110110
c1110111100
c1111000010
c1111001000
c1111001110
c1111010100
c1111011010
c1111100000
c1111100110
c1111101100
c1111110010
c1111111000
c1111111110
c0000000100
c0000001010
c0000010000
c0000010110
c0000011100
c0000100010
c0000101000
c0000101110
c0000110100
c0000111010
c0001000000
c0001000110
c0001001100
c0001010010
c0001011000
c0001011110
c0001100100
c0001101010
c0001110000
c0001110110
c0001111100
c0010000010
c0010001000
c0010001110
c0010010100
c0010011010
c0010100000
c0010100110
c0010101100
c0010110010
c0010111000
c0010111110
c0011000100
c0011001010
c0011010000
c0011010110
c0011011100
c0011100010
c0011101000
c0011101110
c0011110100
c0011111010
c0100000000
c0100000110
c0100001100
c0100010010
c0100011000
c0100011110
c0100100100
c0100101010
c0100110000
c0100110110
c0100111100
c0101000010
c0101001000
c0101001110
c0101010100
c0101011010
c0101100000
c0101100110
c0101101100
c0101110010
c0101111000
c0101111110
c0110000100
c0110001010
c0110010000
c0110010110
c0110011100
c0110100010
c0110101000
c0110101110
c0110110100
c0110111010
c0111000000
c0111000110
c0111001100
c0111010010
c0111011000
c0111011110
c0111100100
c0111101010
c0111110000
c0111110110
c0111111100
c1000000010
c1000001000
c1000001110
c1000010100
c1000011010
c1000100000
c1000100110
c1000101100
c1000110010
c1000111000
c1000111110
c1001000100
c1001001010
c1001010000
c1001010110
c1001011100
c1001100010
c1001101000
c1001101110
c1001110100
c1001111010
c1010000000
c1010000110
c1010001100
c1010010010
c1010011000
c1010011110
c1010100100
c1010101010
c1010110000
c1010110110
c1010111100
c1011000010
c1011001000
c1011001110
c1011010100
c1011011010
c1011100000
c1011100110
c1011101100
c1011110010
c1011111000
c1011111110
c1100000100
c1100001010
c1100010000
c1100010110
c1100011100
c1100100010
c1100101000
c1100101110
c1100110100
c1100111010
c1101000000
c1101000110
c1101001100
c1101010010
c1101011000
c1101011110
c1101100100
c1101101010
c1101110000
c1101110110
c1101111100
c1110000010
c1110001000
c1110001110
c1110010100
c1110011010
c1110100000
c1110100110
c1110101100
c1110110010
c1110111000
c1110111110
c1111000100
c1111001010
c1111010000
c1111010110
c1111011100
c1111100010
c1111101000
c1111101110
c1111110100
c1111111010
c0000000000
#
c0000000000
c0000000111
c0000001110
c0000010101
c0000011100
c0000100011
c0000101010
c0000110001
c0000111000
c0000111111
c0001000110
c0001001101
c0001010100
c0001011011
c0001100010
c0001101001
c0001110000
c0001110111
c0001111110
c0010000101
c0010001100
c0010010011
c0010011010
c0010100001
c0010101000
c0010101111
c0010110110
c0010111101
c0011000100
c0011001011
c0011010010
c0011011001
c0011100000
c0011100111
c0011101110
c0011110101
c0011111100
c0100000011
c0100001010
c0100010001
c0100011000
c0100011111
c0100100110
c0100101101
c0100110100
c0100111011
c0101000010
c0101001001
c0101010000
c0101010111
c0101011110
c0101100101
c0101101100
c0101110011
c0101111010
c0110000001
c0110001000
c0110001111
c0110010110
c0110011101
c0110100100
c0110101011
c0110110010
c0110111001
c0111000000
c0111000111
c0111001110
c0111010101
c0111011100
c0111100011
c0111101010
c0111110001
c0111111000
c0111111111
c1000000110
c1000001101
c1000010100
c1000011011
c1000100010
c1000101001
c1000110000
c1000110111
c1000111110
c1001000101
c1001001100
c1001010011
c1001011010
c1001100001
c1001101000
c1001101111
c1001110110
c1001111101
c1010000100
c1010001011
c1010010010
c1010011001
c1010100000
c1010100111
c1010101110
c1010110101
c1010111100
c1011000011
c1011001010
c1011010001
c1011011000
c1011011111
c1011100110
c1011101101
c1011110100
c1011111011
c1100000010
c1100001001
c1100010000
c1100010111
c1100011110
c1100100101
c1100101100
c1100110011
c1100111010
c1101000001
c1101001000
c1101001111
c1101010110
c1101011101
c1101100100
c1101101011
c1101110010
c1101111001
c1110000000
c1110000111
c1110001110
c1110010101
c1110011100
c1110100011
c1110101010
c1110110001
c1110111000
c1110111111
c1111000110
c1111001101
c1111010100
c1111011011
c1111100010
c1111101001
c1111110000
c1111110111
c1111111110
c0000000101
c0000001100
c0000010011
c0000011010
c0000100001
c0000101000
c0000101111
c0000110110
c0000111101
c0001000100
c0001001011
c0001010010
c0001011001
c0001100000
c0001100111
c0001101110
c0001110101
c0001111100
c0010000011
c0010001010
c0010010001
c0010011000
c0010011111
c0010100110
c0010101101
c0010110100
c0010111011
c0011000010
c0011001001
c0011010000
c0011010111
c0011011110
c0011100101
c0011101100
c0011110011
c0011111010
c0100000001
c0100001000
c0100001111
c0100010110
c0100011101
c0100100100
c0100101011
c0100110010
c0100111001
c0101000000
c0101000111
c0101001110
c0101010101
c0101011100
c0101100011
c0101101010
c0101110001
c0101111000
c0101111111
c0110000110
c0110001101
c0110010100
c0110011011
c0110100010
c0110101001
c0110110000
c0110110111
c0110111110
c0111000101
c0111001100
c0111010011
c0111011010
c0111100001
c0111101000
c0111101111
c0111110110
c0111111101
c1000000100
c1000001011
c1000010010
c1000011001
c1000100000
c1000100111
c1000101110
c1000110101
c1000111100
c1001000011
c1001001010
c1001010001
c1001011000
c1001011111
c1001100110
c1001101101
c1001110100
c1001111011
c1010000010
c1010001001
c1010010000
c1010010111
c1010011110
c1010100101
c1010101100
c1010110011
c1010111010
c1011000001
c1011001000
c1011001111
c1011010110
c1011011101
c1011100100
c1011101011
c1011110010
c1011111001
c1100000000
c1100000111
c1100001110
c1100010101
c1100011100
c1100100011
c1100101010
c1100110001
c1100111000
c1100111111
c1101000110
c1101001101
c1101010100
c1101011011
c1101100010
c1101101001
c1101110000
c1101110111
c1101111110
c1110000101
c1110001100
c1110010011
c1110011010
c1110100001
c1110101000
c1110101111
c1110110110
c1110111101
c1111000100
c1111001011
c1111010010
c1111011001
c1111100000
c1111100111
c1111101110
c1111110101
c1111111100
c0000000011
c0000001010
c0000010001
c0000011000
c0000011111
c0000100110
c0000101101
c0000110100
c0000111011
c0001000010
c0001001001
c0001010000
c0001010111
c0001011110
c0001100101
c0001101100
c0001110011
c0001111010
c0010000001
c0010001000
c0010001111
c0010010110
c0010011101
c0010100100
c0010101011
c0010110010
c0010111001
c0011000000
c0011000111
c0011001110
c0011010101
c0011011100
c0011100011
c0011101010
c0011110001
c0011111000
c0011111111
c0100000110
c0100001101
c0100010100
c0100011011
c0100100010
c0100101001
c0100110000
c0100110111
c0100111110
c0101000101
c0101001100
c0101010011
c0101011010
c0101100001
c0101101000
c0101101111
c0101110110
c0101111101
c0110000100
c0110001011
c0110010010
c0110011001
c0110100000
c0110100111
c0110101110
c0110110101
c0110111100
c0111000011
c0111001010
c0111010001
c0111011000
c0111011111
c0111100110
c0111101101
c0111110100
c0111111011
c1000000010
c1000001001
c1000010000
c1000010111
c1000011110
c1000100101
c1000101100
c1000110011
c1000111010
c1001000001
c1001001000
c1001001111
c1001010110
c1001011101
c1001100100
c1001101011
c1001110010
c1001111001
c1010000000
c1010000111
c1010001110
c1010010101
c1010011100
c1010100011
c1010101010
c1010110001
c1010111000
c1010111111
c1011000110
c1011001101
c1011010100
c1011011011
c1011100010
c1011101001
c1011110000
c1011110111
c1011111110
c1100000101
c1100001100
c1100010011
c1100011010
c1100100001
c1100101000
c1100101111
c1100110110
c1100111101
c1101000100
c1101001011
c1101010010
c1101011001
c1101100000
c1101100111
c1101101110
c1101110101
c1101111100
c1110000011
c1110001010
c1110010001
c1110011000
c1110011111
c1110100110
c1110101101
c1110110100
c1110111011
c1111000010
c1111001001
c1111010000
c1111010111
c1111011110
c1111100101
c1111101100
c1111110011
c1111111010
c0000000001
c0000001000
c0000001111
c0000010110
c0000011101
c0000100100
c0000101011
c0000110010
c0000111001
c0001000000
c0001000111
c0001001110
c0001010101
c0001011100
c0001100011
c0001101010
c0001110001
c0001111000
c0001111111
c0010000110
c0010001101
c0010010100
c0010011011
c0010100010
c0010101001
c0010110000
c0010110111
c0010111110
c0011000101
c0011001100
c0011010011
c0011011010
c0011100001
c0011101000
c0011101111
c0011110110
c0011111101
c0100000100
c0100001011
c0100010010
c0100011001
c0100100000
c0100100111
c0100101110
c0100110101
c0100111100
c0101000011
c0101001010
c0101010001
c0101011000
c0101011111
c0101100110
c0101101101
c0101110100
c0101111011
c0110000010
c0110001001
c0110010000
c0110010111
c0110011110
c0110100101
c0110101100
c0110110011
c0110111010
c0111000001
c0111001000
c0111001111
c0111010110
c0111011101
c0111100100
c0111101011
c0111110010
c0111111001
c1000000000
c1000000111
c1000001110
c1000010101
c1000011100
c1000100011
c1000101010
c1000110001
c1000111000
c1000111111
c1001000110
c1001001101
c1001010100
c1001011011
c1001100010
c1001101001
c1001110000
c1001110111
c1001111110
c1010000101
c1010001100
c1010010011
c1010011010
c1010100001
c1010101000
c1010101111
c1010110110
c1010111101
c1011000100
c1011001011
c1011010010
c1011011001
c1011100000
c1011100111
c1011101110
c1011110101
c1011111100
c1100000011
c1100001010
c1100010001
c1100011000
c1100011111
c1100100110
c1100101101
c1100110100
c1100111011
c1101000010
c1101001001
c1101010000
c1101010111
c1101011110
c1101100101
c1101101100
c1101110011
c1101111010
c1110000001
c1110001000
c1110001111
c1110010110
c1110011101
c1110100100
c1110101011
c1110110010
c1110111001
c1111000000
c1111000111
c1111001110
c1111010101
c1111011100
c1111100011
c1111101010
c1111110001
c1111111000
c1111111111
c0000000110
c0000001101
c0000010100
c0000011011
c0000100010
c0000101001
c0000110000
c0000110111
c0000111110
c0001000101
c0001001100
c0001010011
c0001011010
c0001100001
c0001101000
c0001101111
c0001110110
c0001111101
c0010000100
c0010001011
c0010010010
c0010011001
c0010100000
c0010100111
c0010101110
c0010110101
c0010111100
c0011000011
c0011001010
c0011010001
c0011011000
c0011011111
c0011100110
c0011101101
c0011110100
c0011111011
c0100000010
c0100001001
c0100010000
c0100010111
c0100011110
c0100100101
c0100101100
c0100110011
c0100111010
c0101000001
c0101001000
c0101001111
c0101010110
c0101011101
c0101100100
c0101101011
c0101110010
c0101111001
c0110000000
c0110000111
c0110001110
c0110010101
c0110011100
c0110100011
c0110101010
c0110110001
c0110111000
c0110111111
c0111000110
c0111001101
c0111010100
c0111011011
c0111100010
c0111101001
c0111110000
c0111110111
c0111111110
c1000000101
c1000001100
c1000010011
c1000011010
c1000100001
c1000101000
c1000101111
c1000110110
c1000111101
c1001000100
c1001001011
c1001010010
c1001011001
c1001100000
c1001100111
c1001101110
c1001110101
c1001111100
c1010000011
c1010001010
c1010010001
c1010011000
c1010011111
c1010100110
c1010101101
c1010110100
c1010111011
c1011000010
c1011001001
c1011010000
c1011010111
c1011011110
c1011100101
c1011101100
c1011110011
c1011111010
c1100000001
c1100001000
c1100001111
c1100010110
c1100011101
c1100100100
c1100101011
c1100110010
c1100111001
c1101000000
c1101000111
c1101001110
c1101010101
c1101011100
c1101100011
c1101101010
c1101110001
c1101111000
c1101111111
c1110000110
c1110001101
c1110010100
c1110011011
c1110100010
c1110101001
c1110110000
c1110110111
c1110111110
c1111000101
c1111001100
c1111010011
c1111011010
c1111100001
c1111101000
c1111101111
c1111110110
c1111111101
c0000000100
c0000001011
c0000010010
c0000011001
c0000100000
c0000100111
c0000101110
c0000110101
c0000111100
c0001000011
c0001001010
c0001010001
c0001011000
c0001011111
c0001100110
c0001101101
c0001110100
c0001111011
c0010000010
c0010001001
c0010010000
c0010010111
c0010011110
c0010100101
c0010101100
c0010110011
c0010111010
c0011000001
c0011001000
c0011001111
c0011010110
c0011011101
c0011100100
c0011101011
c0011110010
c0011111001
c0100000000
c0100000111
c0100001110
c0100010101
c0100011100
c0100100011
c0100101010
c0100110001
c0100111000
c0100111111
c0101000110
c0101001101
c0101010100
c0101011011
c0101100010
c0101101001
c0101110000
c0101110111
c0101111110
c0110000101
c0110001100
c0110010011
c0110011010
c0110100001
c0110101000
c0110101111
c0110110110
c0110111101
c0111000100
c0111001011
c0111010010
c0111011001
c0111100000
c0111100111
c0111101110
c0111110101
c0111111100
c1000000011
c1000001010
c1000010001
c1000011000
c1000011111
c1000100110
c1000101101
c1000110100
c1000111011
c1001000010
c1001001001
c1001010000
c1001010111
c1001011110
c1001100101
c1001101100
c1001110011
c1001111010
c1010000001
c1010001000
c1010001111
c1010010110
c1010011101
c1010100100
c1010101011
c1010110010
c1010111001
c1011000000
c1011000111
c1011001110
c1011010101
c1011011100
c1011100011
c1011101010
c1011110001
c1011111000
c1011111111
c1100000110
c1100001101
c1100010100
c1100011011
c1100100010
c1100101001
c1100110000
c1100110111
c1100111110
c1101000101
c1101001100
c1101010011
c1101011010
c1101100001
c1101101000
c1101101111
c1101110110
c1101111101
c1110000100
c1110001011
c1110010010
c1110011001
c1110100000
c1110100111
c1110101110
c1110110101
c1110111100
c1111000011
c1111001010
c1111010001
c1111011000
c1111011111
c1111100110
c1111101101
c1111110100
c1111111011
c0000000010
c0000001001
c0000010000
c0000010111
c0000011110
c0000100101
c0000101100
c0000110011
c0000111010
c0001000001
c0001001000
c0001001111
c0001010110
c0001011101
c0001100100
c0001101011
c0001110010
c0001111001
c0010000000
c0010000111
c0010001110
c0010010101
c0010011100
c0010100011
c0010101010
c0010110001
c0010111000
c0010111111
c0011000110
c0011001101
c0011010100
c0011011011
c0011100010
c0011101001
c0011110000
c0011110111
c0011111110
c0100000101
c0100001100
c0100010011
c0100011010
c0100100001
c0100101000
c0100101111
c0100110110
c0100111101
c0101000100
c0101001011
c0101010010
c0101011001
c0101100000
c0101100111
c0101101110
c0101110101
c0101111100
c0110000011
c0110001010
c0110010001
c0110011000
c0110011111
c0110100110
c0110101101
c0110110100
c0110111011
c0111000010
c0111001001
c0111010000
c0111010111
c0111011110
c0111100101
c0111101100
c0111110011
c0111111010
c1000000001
c1000001000
c1000001111
c1000010110
c1000011101
c1000100100
c1000101011
c1000110010
c1000111001
c1001000000
c1001000111
c1001001110
c1001010101
c1001011100
c1001100011
c1001101010
c1001110001
c1001111000
c1001111111
c1010000110
c1010001101
c1010010100
c1010011011
c1010100010
c1010101001
c1010110000
c1010110111
c1010111110
c1011000101
c1011001100
c1011010011
c1011011010
c1011100001
c1011101000
c1011101111
c1011110110
c1011111101
c1100000100
c1100001011
c1100010010
c1100011001
c1100100000
c1100100111
c1100101110
c1100110101
c1100111100
c1101000011
c1101001010
c1101010001
c1101011000
c1101011111
c1101100110
c1101101101
c1101110100
c1101111011
c1110000010
c1110001001
c1110010000
c1110010111
c1110011110
c1110100101
c1110101100
c1110110011
c1110111010
c1111000001
c1111001000
c1111001111
c1111010110
c1111011101
c1111100100
c1111101011
c1111110010
c1111111001
c0000000000
#
