10000 0111111	
10001 0000110
10010 1011011
10011 1001111
10100 1100110
10101 1101101
10110 1111101
10111 0000111
11000 1111111
11001 1101111
11010 1110111
11011 1111100
11100 0111001
11101 1011110
11110 1111001
11111 1110001
00000 0000000
00001 0000000
00010 0000000
00011 0000000
00100 0000000
00101 0000000
00110 0000000
00111 0000000
01000 0000000
01001 0000000
01010 0000000
01011 0000000
01100 0000000
01101 0000000
01110 0000000
01111 0000000
